{
  "name": "Synneva Hansdatter Bjordal (b. 1870) m. Johannes Lasseson Leirnes (1863-1955)",
  "children": [
    {
      "name": "Brita Leirnes",
      "born": "",
      "death": "",
      "description": "beskrivelse"
    },
    {
      "name": "Astrid Hansina Leirnes (1896-1967) m. Gunnar osen (1892-1947)",
      "born": "",
      "death": "",
      "children": [
        {
          "name": "Norvald Gunnarson Leirnes (b. 1922) m. Margot Jarlfrid Brekke",
          "born": "",
          "death": "",
          "children": [
            {
              "name": "John Arild Leirnes (b. 1954) m. Målfrid Nyheim",
              "born": "",
              "death": "",
              "children": [
                {
                  "name": "Jan Erik",
                  "born": "1990",
                  "death": ""
                },
                {
                  "name": "Per Kristian",
                  "born": "1992",
                  "death": ""
                }
              ]
            },
            {
              "name": "Kjell Johannes Leirnes (b. 1959) m. Liv Gunnbjørg Søreide",
              "born": "",
              "death": ""
            },
            {
              "name": "Dagfinn Arne Leirnes",
              "born": "1964",
              "death": "",
              "children": [
                {
                  "name": "Irene Leirnes",
                  "born": "",
                  "death": ""
                }
              ]
            },
            {
              "name": "Sveinung Leirnes (b. 1968) m. Mona Steinsvik",
              "born": "",
              "death": "",
              "children": [
                {
                  "name": "Malin Leirnes",
                  "born": "",
                  "death": ""
                },
                {
                  "name": "Stina Leirnes",
                  "born": "",
                  "death": ""
                }
              ]
            },
            {
              "name": "Unni Leirnes (b. 1970) m. Arnt Helge Espås (b. 1965)",
              "born": "",
              "death": "",
              "children": [
                {
                  "name": "Marita Leirnes Espås",
                  "born": "1989",
                  "death": ""
                },
                {
                  "name": "Rikke Leirnes Espås",
                  "born": "1991",
                  "death": ""
                },
                {
                  "name": "Hugo Leirnes Espås",
                  "born": "1992",
                  "death": ""
                },
                {
                  "name": "Viggo",
                  "born": "",
                  "death": ""
                },
                {
                  "name": "Oda",
                  "born": "",
                  "death": ""
                }
              ]
            }
          ]
        }
      ]
    },
    {
      "name": "Leif Johannes Leirnes (1898-1993) m. Anna Ingeborg Linnea Plantin (1904-1990)",
      "born": "",
      "death": "",
      "description": "beskrivelse",
      "children": [
        {
          "name": "Aud Synnøve Leirnes (1923.08.24-2010.05.27) m. Gustav Henry Johansson (1922.05.15-2006.10)",
          "born": "",
          "death": "",
          "children": [
            {
              "name": "Randi Mari-Ann Leirnes (b. 1954.05.29) m. Klas Lind (b. 1963.06.18)",
              "born": "",
              "death": "",
              "children": [
                {
                  "name": "Johan Leirnes Lind (b. 1983.12.30) m. Josefin Leirnes (b. 1983.05.05)",
                  "born": "",
                  "death": "",
                  "children": [
                    {
                      "name": "Anna Signe Gerda Leirnes",
                      "born": "2015.01.16",
                      "death": ""
                    }
                  ]
                },
                {
                  "name": "Love Lind",
                  "born": "1988",
                  "death": ""
                }
              ]
            },
            {
              "name": "Ingeborg Sølvi Degerfalk (b. 1957.11.27) m. Tore Degerfalk (b. 1954.09.13)",
              "born": "",
              "death": "",
              "children": [
                {
                  "name": "Magnus Degerfalk  m. Lina Marcusson",
                  "born": "1985-02-04",
                  "death": ""
                },
                {
                  "name": "Lisa Linnea Leirnes (b. 1981.12.30) m. Klas Leirnes (b. 1979.10.22)",
                  "born": "",
                  "death": "",
                  "children": [
                    {
                      "name": "Sixten Leirnes (b. )",
                      "born": "2015.05",
                      "death": ""
                    }
                  ]
                }
              ]
            },
            {
              "name": "Karl Peter Johansson (b. 1963.05.26)",
              "born": "",
              "death": "",
              "children": [
                {
                  "name": "Hanna Carlsson",
                  "born": "",
                  "death": ""
                },
                {
                  "name": "Marcus",
                  "born": "",
                  "death": ""
                }
              ]
            }
          ]
        },
        {
          "name": "Johan Sverre Leirnes (1925-2005) m. Mildrid Johanna Brox (b. 1926)",
          "born": "",
          "death": "",
          "children": [
            {
              "name": "Leif Leirnes",
              "born": "1951",
              "death": ""
            },
            {
              "name": "Arne Leirnes (b. 1955.07.07) m. Lena Leirnes (b. 1957.10.25)",
              "born": "",
              "death": "",
              "children": [
                {
                  "name": "Anton Leirnes (b. 27.06.1987) m. Jessica (Ulfvin) Leirnes (b. 15.06.1988)",
                  "born": "",
                  "death": "",
                  "children": [
                    {
                      "name": "Minou Alice Linnéa Leirnes",
                      "born": "21.02.2016",
                      "death": ""
                    }
                  ]
                },
                {
                  "name": "Nora Leirnes",
                  "born": "16.09.1993",
                  "death": ""
                }
              ]
            },
            {
              "name": "Ingrid Leirnes",
              "born": "1956",
              "death": "1969"
            },
            {
              "name": "Liv Leirnes (b. 1960.10.01) m. Anders Markström",
              "born": "",
              "death": "",
              "children": [
                {
                  "name": "Ingrid Leirnes",
                  "born": "1989.06.24",
                  "death": ""
                },
                {
                  "name": "Per Markström",
                  "born": "1993.03.25",
                  "death": ""
                }
              ]
            },
            {
              "name": "Mathias",
              "born": "ca 1963",
              "death": ""
            }
          ]
        },
        {
          "name": "Henry Plantin Leirnes (b. 1927) m. Agnes Sunde (1926-1986)",
          "born": "",
          "death": "",
          "children": [
            {
              "name": "Inger Leirnes (b. 1955.01.24) m. Egil Johan Pedersen (b. 1952)",
              "born": "",
              "death": "",
              "children": [
                {
                  "name": "Christian",
                  "born": "1978",
                  "death": "",
                  "children": [
                    {
                      "name": "Daniel m. Gidre",
                      "born": "",
                      "death": ""
                    }
                  ]
                },
                {
                  "name": "Anne",
                  "born": "1981",
                  "death": "",
                  "children": [
                    {
                      "name": "Emil",
                      "born": "",
                      "death": ""
                    }
                  ]
                },
                {
                  "name": "Eirik Pedersen",
                  "born": "",
                  "death": ""
                }
              ]
            },
            {
              "name": "Else Alfhild Leirnes (b. 1958.01.23) m. Morten Børstein (1958-2012.01.23)",
              "born": "",
              "death": "",
              "children": [
                {
                  "name": "Agnete Plantin",
                  "born": "1985",
                  "death": ""
                },
                {
                  "name": "Erlend Børstein",
                  "born": "1989",
                  "death": ""
                },
                {
                  "name": "Ida Børstein",
                  "born": "",
                  "death": ""
                }
              ]
            }
          ]
        }
      ]
    },
    {
      "name": "Helga Leirnes",
      "born": "1901",
      "death": "1977",
      "description": "beskrivelse"
    },
    {
      "name": "Halfdan Leirnes (1902-1980) m. Gunnvor Olsdtr. Osland (1907-1993)",
      "born": "",
      "death": "",
      "children": [
        {
          "name": "John Olav Leirnes",
          "born": "1934",
          "death": "1934"
        },
        {
          "name": "Gunlaug Leirnes",
          "born": "1935",
          "death": "1935"
        },
        {
          "name": "Sølvia Leirnes (1936-1936)",
          "born": "",
          "death": ""
        },
        {
          "name": "Gunlaug Leirnes m. Erling Norvald A. Bjordal (b. 1937.09.07)",
          "born": "",
          "death": "",
          "children": [
            {
              "name": "Arild Henning Bjordal (b. 10.05.1969) m. Anne-Mette Moen",
              "born": "",
              "death": "",
              "children": [
                {
                  "name": "Eilin Bjordal",
                  "born": " 23.02.2005",
                  "death": ""
                },
                {
                  "name": "Silje Bjordal",
                  "born": " 02.11.2007",
                  "death": ""
                }
              ]
            },
            {
              "name": "Gunvor Beate Bjordal (b. 01.06.1975) m. Ledvin Solvik",
              "born": "",
              "death": "",
              "children": [
                {
                  "name": "Kaja Bjordal Solvik",
                  "born": "2009.12.14",
                  "death": ""
                }
              ]
            }
          ]
        }
      ]
    },
    {
      "name": "Svanhild Leirnes (02.08.1906-16.3.1958) m. Kristoffer Stormark (09.09.1914-ca 1990)",
      "born": "",
      "death": "",
      "description": "beskrivelse",
      "children": [
        {
          "name": "Kirsten Sølvi Stormark  25.09.1942-22.09.1989) m. Arne Leif Landsvik (b. 13.01.1941)",
          "born": "",
          "death": "",
          "children": [
            {
              "children": [
                {
                  "name": "Anette Kristin Landsvik (b. 05.05.1965) m. Frode Hansen (b. 18.07.1960)",
                  "born": "",
                  "death": "",
                  "children": [
                    {
                      "name": "Fredrik Lindseth",
                      "born": "05.10.1987",
                      "death": ""
                    },
                    {
                      "name": "Annicken Helena Lindseth",
                      "born": "24.3.1989",
                      "death": ""
                    },
                    {
                      "name": "Anna Pernille Lindseth",
                      "born": "15.1.1995",
                      "death": ""
                    }
                  ]
                },
                {
                  "name": "Anne Merete Mueller-Landsvik (b. 14.3.1969) m. Arnd Müller (b. 14.09.1966)",
                  "born": "",
                  "death": "",
                  "children": [
                    {
                      "name": "Simon Mueller-Landsvik",
                      "born": "01.12.1999",
                      "death": ""
                    },
                    {
                      "name": "Mika Mueller-Landsvik",
                      "born": "23.12.2001",
                      "death": ""
                    },
                    {
                      "name": "Julian Mueller-Landsvik",
                      "born": "18.09.2007",
                      "death": ""
                    }
                  ]
                },
                {
                  "name": "Arne Christian Landsvik (b. 22.9.1972) m. Monica Madsen (b. 29.04.1977)",
                  "born": "",
                  "death": "",
                  "children": [
                    {
                      "name": "Christopher Madsen Landsvik",
                      "born": "26.05.2008",
                      "death": ""
                    },
                    {
                      "name": "Mathias Madsen Landsvik",
                      "born": "14.06.2010",
                      "death": ""
                    },
                    {
                      "name": "Camille Kirsten M. Landsvik",
                      "born": "28.05.2014",
                      "death": ""
                    }
                  ]
                }
              ]
            }
          ]
        }
      ]
    },
    {
      "name": "Sverre Leirnes",
      "date": "1908-1910",
      "description": "beskrivelse"
    },
    {
      "name": "Hildur Leirnes",
      "date": "1914-1915",
      "description": "beskrivelse"
    }
  ]
}